<?xml version="1.0" encoding="UTF-8"?>
<svg width="350px" height="300px" viewBox="0 0 350 300" version="1.1" xmlns="http://www.w3.org/2000/svg" xmlns:xlink="http://www.w3.org/1999/xlink">
    <!-- Generator: Sketch 59.1 (86144) - https://sketch.com -->
    <title>placeholder</title>
    <desc>Created with Sketch.</desc>
    <g id="Page-1" stroke="none" stroke-width="1" fill="none" fill-rule="evenodd">
        <g id="placeholder" fill-rule="nonzero">
            <polygon id="Rectangle" fill="#EDEDED" points="0 0 350 0 350 300 0 300"></polygon>
            <g id="🔹-Icon-Color-Clipped" transform="translate(118.000000, 87.000000)" fill="#B9B9B9">
                <path d="M81.9,75.6 C99.29697,75.6 113.4,89.70303 113.4,107.1 L113.4,119.7 C113.4,123.179394 110.579394,126 107.1,126 C103.620606,126 100.8,123.179394 100.8,119.7 L100.8,107.1 C100.8,96.661818 92.338182,88.2 81.9,88.2 L31.5,88.2 C21.0618182,88.2 12.6,96.661818 12.6,107.1 L12.6,119.7 C12.6,123.179394 9.7793939,126 6.3,126 C2.8206061,126 0,123.179394 0,119.7 L0,107.1 C0,89.70303 14.1030304,75.6 31.5,75.6 L81.9,75.6 Z M56.7,0 C74.09697,0 88.2,14.1030304 88.2,31.5 C88.2,48.89697 74.09697,63 56.7,63 C39.30303,63 25.2,48.89697 25.2,31.5 C25.2,14.1030304 39.30303,0 56.7,0 Z M56.7,12.6 C46.261818,12.6 37.8,21.0618182 37.8,31.5 C37.8,41.938182 46.261818,50.4 56.7,50.4 C67.138182,50.4 75.6,41.938182 75.6,31.5 C75.6,21.0618182 67.138182,12.6 56.7,12.6 Z" id="🔹-Icon-Color"></path>
            </g>
        </g>
    </g>
</svg>